…
Clean Variable Names

It is now time to wrangle my data into a useable form.

First — I need to clean up my variable names. They are a mess of inconsistent upper and lower casing and have letters in strange places. For example, EEnd_BPIPainInterference.

The make_clean_names() function from janitor will fix the majority of problems with variable names

names(joined_data)<- janitor::make_clean_names(names(joined_data))

#Take a look
dplyr::select(joined_data, contains("interference"))

## # A tibble: 275 x 4
##    e_end_bpi_pain_in… e_end_bpi_pain_in… ref_bpi_pain_in… ref_bpi_pain_int…
##    <chr>              <chr>              <chr>            <chr>            
##  1 6.5714             0                  8                0                
##  2 5                  0                  6.7143           0                
##  3 3.7143             0                  5.5714           0                
##  4 5.4286             0                  4                0                
##  5 9.8571             0                  7.8571           0                
##  6 6.5714             0                  5.4286           0                
##  7 3.2857             0                  7.4286           0                
##  8 9.2857             0                  8.5              1                
##  9 8.2857             0                  7.5714           0                
## 10 5                  0                  6.8571           0                
## # … with 265 more rows
…
