…
## $ Ref_PSEQTotal                 <chr> "12", "27", "14", "28", "3", "28",…
## $ Ref_SentStatus                <chr> "3", "3", "3", "3", "3", "3", "3",…
## $ Ref_SurveyCategoryID          <chr> "1", "1", "1", "1", "1", "1", "1",…
## $ Ref_SurveyKey                 <chr> "EPW1810", "EPW1845", "EPW1941", "…
## $ Ref_SurveyScheduleID          <chr> "810", "845", "941", "1882", "977"…
## $ Ref_Weight                    <chr> "60", "73", "189", "98", "76", "10…
## $ Ref_WorkHoursAffected         <chr> "1", "1", "1", NA, "1", "0", "1", …
## $ Ref_WorkTypeAffected          <chr> "1", "1", "1", NA, "1", "0", "1", …
## $ ReferralDate                  <chr> "3/4/17", "22/2/17", "6/6/17", "23…
## $ ReferralSource                <chr> "11", "10", "10", "10", "10", "10"…
## $ ReferralSourceOther           <chr> NA, NA, NA, NA, NA, NA, NA, NA, NA…
## $ Sex                           <chr> "1", "2", "2", "1", "1", "1", "1",…
## $ State                         <chr> "2", "2", "2", "2", "2", "2", "2",…
## $ TorresStraitIsl               <chr> "0", "0", "0", NA, "0", "0", "0", …
## # A tibble: 275 x 273
##    Aboriginal CancerPain CMAnaemia CMBloodPressure CMCancer CMDepression
##    <chr>      <chr>      <chr>     <chr>           <chr>    <chr>       
##  1 0          0          0         0               0        1           
##  2 0          0          0         0               0        1           
##  3 0          0          0         0               0        1           
##  4 <NA>       0          <NA>      <NA>            <NA>     <NA>        
##  5 0          0          0         0               0        1           
##  6 0          0          0         0               0        0           
##  7 0          0          0         0               0        0           
##  8 0          0          0         0               0        1           
##  9 0          0          0         0               0        0           
## 10 0          0          0         0               0        0           
## # … with 265 more rows, and 267 more variables: CMDiabetes <chr>,
## #   CMHeart <chr>, CMKidney <chr>, CMLung <chr>, CMOsteoarthritis <chr>,
## #   CMOther <chr>, CMRheumatoid <chr>, CMStroke <chr>, CMUlcer <chr>,
## #   CommunicationAssist <chr>, ComorbiditiesOther <chr>,
## #   CompensationCase <chr>, CompensationCaseType <chr>,
## #   CompensationOtherDetail <chr>, CountryOfBirth <chr>,
## #   CountryOfBirthOther <chr>, DOB <chr>, EEnd_BPIActivity <chr>,
## #   EEnd_BPIAverage <chr>, EEnd_BPIEnjoyment <chr>, EEnd_BPILeast <chr>,
## #   EEnd_BPIMainPain <chr>, EEnd_BPIMood <chr>, EEnd_BPINow <chr>,
…
